sim/BusSimpleSRAM.vcd
$version Generated by VerilatedVcd $end
$timescale 1s $end
 $scope module TOP $end
  $var wire 1 O clk $end
  $var wire 1 P reset $end
  $var wire 32 Q bus__a__addr [31:0] $end
  $var wire 1 R bus__a__wen $end
  $var wire 8 S bus__a__len [7:0] $end
  $var wire 1 T bus__a__valid $end
  $var wire 1 U bus__a__ready $end
  $var wire 32 V bus__r__data [31:0] $end
  $var wire 1 W bus__r__valid $end
  $var wire 1 X bus__r__ready $end
  $var wire 32 Y bus__w__data [31:0] $end
  $var wire 4 Z bus__w__strb [3:0] $end
  $var wire 1 [ bus__w__valid $end
  $var wire 1 \ bus__w__ready $end
  $scope module BusSimpleSRAM $end
   $var wire 1 O clk $end
   $var wire 1 P reset $end
   $var wire 32 Q bus__a__addr [31:0] $end
   $var wire 1 R bus__a__wen $end
   $var wire 8 S bus__a__len [7:0] $end
   $var wire 1 T bus__a__valid $end
   $var wire 1 U bus__a__ready $end
   $var wire 32 V bus__r__data [31:0] $end
   $var wire 1 W bus__r__valid $end
   $var wire 1 X bus__r__ready $end
   $var wire 32 Y bus__w__data [31:0] $end
   $var wire 4 Z bus__w__strb [3:0] $end
   $var wire 1 [ bus__w__valid $end
   $var wire 1 \ bus__w__ready $end
   $var wire 32 (! ADDR_WIDTH [31:0] $end
   $var wire 32 )! DATA_BYTES [31:0] $end
   $var wire 32 )! WBYTES [31:0] $end
   $var wire 32 *! HEIGHT [31:0] $end
   $var wire 8 +! INIT_FILE [7:0] $end
   $var wire 32 ,! WORD [31:0] $end
   $var wire 32 -! ALIGN_HEIGHT_UP [31:0] $end
   $var wire 1 ' sram_wrapper__clk $end
   $var wire 1 D sram_wrapper__reset $end
   $var wire 32 ] sram_wrapper__bus__a__addr [31:0] $end
   $var wire 1 E sram_wrapper__bus__a__wen $end
   $var wire 8 F sram_wrapper__bus__a__len [7:0] $end
   $var wire 1 ( sram_wrapper__bus__a__valid $end
   $var wire 1 ^ sram_wrapper__bus__a__ready $end
   $var wire 32 _ sram_wrapper__bus__r__data [31:0] $end
   $var wire 1 ` sram_wrapper__bus__r__valid $end
   $var wire 1 ) sram_wrapper__bus__r__ready $end
   $var wire 32 * sram_wrapper__bus__w__data [31:0] $end
   $var wire 4 + sram_wrapper__bus__w__strb [3:0] $end
   $var wire 1 , sram_wrapper__bus__w__valid $end
   $var wire 1 a sram_wrapper__bus__w__ready $end
   $var wire 1 ' sb__clk $end
   $var wire 1 D sb__reset $end
   $var wire 32 L sb__slave__a__addr [31:0] $end
   $var wire 1 M sb__slave__a__wen $end
   $var wire 8 N sb__slave__a__len [7:0] $end
   $var wire 1 b sb__slave__a__valid $end
   $var wire 1 - sb__slave__a__ready $end
   $var wire 32 . sb__slave__r__data [31:0] $end
   $var wire 1 / sb__slave__r__valid $end
   $var wire 1 < sb__slave__r__ready $end
   $var wire 32 = sb__slave__w__data [31:0] $end
   $var wire 4 > sb__slave__w__strb [3:0] $end
   $var wire 1 G sb__slave__w__valid $end
   $var wire 1 0 sb__slave__w__ready $end
   $var wire 32 c sb__master__a__addr [31:0] $end
   $var wire 1 d sb__master__a__wen $end
   $var wire 8 e sb__master__a__len [7:0] $end
   $var wire 1 1 sb__master__a__valid $end
   $var wire 1 f sb__master__a__ready $end
   $var wire 32 ? sb__master__r__data [31:0] $end
   $var wire 1 @ sb__master__r__valid $end
   $var wire 1 2 sb__master__r__ready $end
   $var wire 32 3 sb__master__w__data [31:0] $end
   $var wire 4 4 sb__master__w__strb [3:0] $end
   $var wire 1 5 sb__master__w__valid $end
   $var wire 1 H sb__master__w__ready $end
   $scope module sb $end
    $var wire 1 ' clk $end
    $var wire 1 D reset $end
    $var wire 32 L slave__a__addr [31:0] $end
    $var wire 1 M slave__a__wen $end
    $var wire 8 N slave__a__len [7:0] $end
    $var wire 1 b slave__a__valid $end
    $var wire 1 - slave__a__ready $end
    $var wire 32 . slave__r__data [31:0] $end
    $var wire 1 / slave__r__valid $end
    $var wire 1 < slave__r__ready $end
    $var wire 32 = slave__w__data [31:0] $end
    $var wire 4 > slave__w__strb [3:0] $end
    $var wire 1 G slave__w__valid $end
    $var wire 1 0 slave__w__ready $end
    $var wire 32 c master__a__addr [31:0] $end
    $var wire 1 d master__a__wen $end
    $var wire 8 e master__a__len [7:0] $end
    $var wire 1 1 master__a__valid $end
    $var wire 1 f master__a__ready $end
    $var wire 32 ? master__r__data [31:0] $end
    $var wire 1 @ master__r__valid $end
    $var wire 1 2 master__r__ready $end
    $var wire 32 3 master__w__data [31:0] $end
    $var wire 4 4 master__w__strb [3:0] $end
    $var wire 1 5 master__w__valid $end
    $var wire 1 H master__w__ready $end
    $var wire 32 (! ADDR_WIDTH [31:0] $end
    $var wire 32 )! DATA_BYTES [31:0] $end
    $var wire 1 g addr__clk $end
    $var wire 1 6 addr__reset $end
    $var wire 41 h addr__slave__data [40:0] $end
    $var wire 1 j addr__slave__valid $end
    $var wire 1 k addr__slave__ready $end
    $var wire 41 l addr__master__data [40:0] $end
    $var wire 1 n addr__master__valid $end
    $var wire 1 o addr__master__ready $end
    $var wire 1 g wdata__clk $end
    $var wire 1 6 wdata__reset $end
    $var wire 36 7 wdata__slave__data [35:0] $end
    $var wire 1 p wdata__slave__valid $end
    $var wire 1 q wdata__slave__ready $end
    $var wire 36 r wdata__master__data [35:0] $end
    $var wire 1 t wdata__master__valid $end
    $var wire 1 u wdata__master__ready $end
    $var wire 1 g rdata__clk $end
    $var wire 1 6 rdata__reset $end
    $var wire 32 9 rdata__slave__data [31:0] $end
    $var wire 1 : rdata__slave__valid $end
    $var wire 1 v rdata__slave__ready $end
    $var wire 32 w rdata__master__data [31:0] $end
    $var wire 1 x rdata__master__valid $end
    $var wire 1 ; rdata__master__ready $end
    $scope module addr $end
     $var wire 1 g clk $end
     $var wire 1 6 reset $end
     $var wire 41 h slave__data [40:0] $end
     $var wire 1 j slave__valid $end
     $var wire 1 k slave__ready $end
     $var wire 41 l master__data [40:0] $end
     $var wire 1 n master__valid $end
     $var wire 1 o master__ready $end
     $var wire 32 .! WIDTH [31:0] $end
     $var wire 41 y buffer [40:0] $end
     $var wire 1 { ready $end
    $upscope $end
    $scope module rdata $end
     $var wire 1 g clk $end
     $var wire 1 6 reset $end
     $var wire 32 9 slave__data [31:0] $end
     $var wire 1 : slave__valid $end
     $var wire 1 v slave__ready $end
     $var wire 32 w master__data [31:0] $end
     $var wire 1 x master__valid $end
     $var wire 1 ; master__ready $end
     $var wire 32 (! WIDTH [31:0] $end
     $var wire 32 | buffer [31:0] $end
     $var wire 1 } ready $end
    $upscope $end
    $scope module wdata $end
     $var wire 1 g clk $end
     $var wire 1 6 reset $end
     $var wire 36 7 slave__data [35:0] $end
     $var wire 1 p slave__valid $end
     $var wire 1 q slave__ready $end
     $var wire 36 r master__data [35:0] $end
     $var wire 1 t master__valid $end
     $var wire 1 u master__ready $end
     $var wire 32 /! WIDTH [31:0] $end
     $var wire 36 ~ buffer [35:0] $end
     $var wire 1 "! ready $end
    $upscope $end
   $upscope $end
   $scope module sram_wrapper $end
    $var wire 1 ' clk $end
    $var wire 1 D reset $end
    $var wire 32 ] bus__a__addr [31:0] $end
    $var wire 1 E bus__a__wen $end
    $var wire 8 F bus__a__len [7:0] $end
    $var wire 1 ( bus__a__valid $end
    $var wire 1 ^ bus__a__ready $end
    $var wire 32 _ bus__r__data [31:0] $end
    $var wire 1 ` bus__r__valid $end
    $var wire 1 ) bus__r__ready $end
    $var wire 32 * bus__w__data [31:0] $end
    $var wire 4 + bus__w__strb [3:0] $end
    $var wire 1 , bus__w__valid $end
    $var wire 1 a bus__w__ready $end
    $var wire 32 (! ADDR_WIDTH [31:0] $end
    $var wire 32 )! DATA_BYTES [31:0] $end
    $var wire 32 )! WBYTES [31:0] $end
    $var wire 32 *! HEIGHT [31:0] $end
    $var wire 8 +! INIT_FILE [7:0] $end
    $var wire 32 ,! WORD [31:0] $end
    $var wire 32 -! ALIGN_HEIGHT_UP [31:0] $end
    $var wire 1 # sram__clk $end
    $var wire 9 #! sram__addr [8:0] $end
    $var wire 1 $ sram__wen $end
    $var wire 32 % sram__wdata [31:0] $end
    $var wire 4 & sram__wstrb [3:0] $end
    $var wire 32 $! sram__rdata [31:0] $end
    $var wire 32 %! addr [31:0] $end
    $var wire 32 0! data [31:0] $end
    $var wire 1 A pending_w $end
    $var wire 1 &! pending_r $end
    $var wire 8 B len [7:0] $end
    $var wire 1 C aready $end
    $var wire 1 I req $end
    $var wire 1 J dread $end
    $var wire 1 K dwrite $end
    $var wire 1 '! dlast $end
    $scope module sram $end
     $var wire 1 # clk $end
     $var wire 9 #! addr [8:0] $end
     $var wire 1 $ wen $end
     $var wire 32 % wdata [31:0] $end
     $var wire 4 & wstrb [3:0] $end
     $var wire 32 $! rdata [31:0] $end
     $var wire 32 )! WBYTES [31:0] $end
     $var wire 32 *! HEIGHT [31:0] $end
     $var wire 8 +! INIT_FILE [7:0] $end
     $var wire 32 ,! WORD [31:0] $end
     $var wire 32 -! ALIGN_HEIGHT_UP [31:0] $end
     $var wire 32 (! WIDTH [31:0] $end
     $var wire 32 *! HEIGHT_ALIGNED [31:0] $end
    $upscope $end
   $upscope $end
  $upscope $end
 $upscope $end
$enddefinitions $end


#0
1#
0$
b00000000000000000000000000000000 %
b0000 &
1'
0(
0)
b00000000000000000000000000000000 *
b0000 +
1,
0-
b00000000000000000000000000000000 .
1/
10
01
02
b00000000000000000000000000000000 3
b0000 4
15
16
b000000000000000000000000000000000000 7
b00000000000000000000000000000000 9
0:
0;
0<
b00000000000000000000000000000000 =
b0000 >
b00000000000000000000000000000000 ?
0@
0A
b00000000 B
0C
1D
0E
b00000000 F
0G
1H
0I
0J
1K
b00000000000000000000000000000000 L
0M
b00000000 N
1O
1P
b00000000000000000000000000000000 Q
0R
b00000000 S
0T
0U
b00000000000000000000000000000000 V
1W
0X
b00000000000000000000000000000000 Y
b0000 Z
0[
1\
b00000000000000000000000000000000 ]
0^
b00000000000000000000000000000000 _
0`
1a
0b
b00000000000000000000000000000000 c
0d
b00000000 e
0f
1g
b00000000000000000000000000000000000000000 h
0j
0k
b00000000000000000000000000000000000000000 l
1n
0o
0p
1q
b000000000000000000000000000000000000 r
1t
1u
0v
b00000000000000000000000000000000 w
1x
b00000000000000000000000000000000000000000 y
0{
b00000000000000000000000000000000 |
0}
b000000000000000000000000000000000000 ~
0"!
b000000000 #!
b00000000000000000000000000000000 $!
b00000000000000000000000000000000 %!
0&!
1'!
b00000000000000000000000000100000 (!
b00000000000000000000000000000100 )!
b00000000000000000000001000000000 *!
b00000000 +!
b00000000000000000000000000001000 ,!
b00000000000000000000000111111111 -!
b00000000000000000000000000101001 .!
b00000000000000000000000000100100 /!
b00000000000000000000000000000000 0!
#1
0#
0'
0O
0g
#2
1#
1'
1)
0,
1-
0/
12
05
1C
0K
1O
1U
0W
1^
1f
1g
1k
0n
1o
0t
1v
0x
1{
1}
1"!
#3
0#
0'
0O
0g
#4
1#
1'
1O
1g
#5
0#
0'
0O
0g
#6
1#
1'
1O
1g
#7
0#
0'
0O
0g
#8
1#
1'
1O
1g
#9
0#
0'
0O
0g
#10
1#
1'
06
0D
1O
0P
1g
#11
0#
0'
0O
0g
#12
1#
1$
b00000000000000000000000000000001 %
b1111 &
1'
1(
b00000000000000000000000000000001 *
b1111 +
1,
11
b00000000000000000000000000000001 3
b1111 4
15
b000000000000000000000000000000011111 7
b00000000000000000000000000000001 =
b1111 >
1E
1G
1I
1K
b00000000000000000000000000000001 L
1M
1O
b00000000000000000000000000000001 Q
1R
1T
b00000000000000000000000000000001 Y
b1111 Z
1[
b00000000000000000000000000000001 ]
1b
b00000000000000000000000000000001 c
1d
1g
b00000000000000000000000000000001000000001 h
1j
b00000000000000000000000000000001000000001 l
1n
1p
b000000000000000000000000000000011111 r
1t
b000000001 #!
#13
0#
0'
0O
0g
#14
1#
0$
1'
0(
0,
01
05
b11111111 B
0G
0I
0K
1O
0T
0[
0b
1g
0j
0n
0p
0t
b000000010 #!
b00000000000000000000000000000010 %!
0'!
#15
0#
0'
0O
0g
#16
1#
1'
1O
1g
#17
0#
0'
0O
0g
#18
1#
1'
1(
11
1I
b00000000000000000000000000000010 L
1O
b00000000000000000000000000000010 Q
1T
b00000000000000000000000000000010 ]
1b
b00000000000000000000000000000010 c
1g
b00000000000000000000000000000010000000001 h
1j
b00000000000000000000000000000010000000001 l
1n
#19
0#
0'
0O
0g
#20
1#
1$
b00000000000000000000000000000010 %
1'
0(
b00000000000000000000000000000010 *
1,
01
b00000000000000000000000000000010 3
15
b000000000000000000000000000000101111 7
b00000000000000000000000000000010 =
1A
b00000000 B
0C
1G
0I
1K
1O
0T
b00000000000000000000000000000010 Y
1[
0^
0b
0f
1g
0j
0n
0o
1p
b000000000000000000000000000000101111 r
1t
1'!
#21
0#
0'
0O
0g
#22
1#
0$
1'
0,
05
0A
b11111111 B
1C
0G
0K
1O
0[
1^
1f
1g
1o
0p
0t
b000000011 #!
b00000000000000000000000000000011 %!
0'!
#23
0#
0'
0O
0g
#24
1#
1'
1O
1g
#25
0#
0'
0O
0g
#26
1#
1'
1(
11
1I
b00000000000000000000000000000011 L
1O
b00000000000000000000000000000011 Q
1T
b00000000000000000000000000000011 ]
1b
b00000000000000000000000000000011 c
1g
b00000000000000000000000000000011000000001 h
1j
b00000000000000000000000000000011000000001 l
1n
#27
0#
0'
0O
0g
#28
1#
1'
0(
01
1A
b00000000 B
0C
0I
1O
0T
0^
0b
0f
1g
0j
0n
0o
1'!
#29
0#
0'
0O
0g
#30
1#
1'
1O
1g
#31
0#
0'
0O
0g
#32
1#
1$
b00000000000000000000000000000011 %
1'
b00000000000000000000000000000011 *
1,
b00000000000000000000000000000011 3
15
b000000000000000000000000000000111111 7
b00000000000000000000000000000011 =
1G
1K
1O
b00000000000000000000000000000011 Y
1[
1g
1p
b000000000000000000000000000000111111 r
1t
#33
0#
0'
0O
0g
#34
1#
0$
1'
0,
05
0A
b11111111 B
1C
0G
0K
1O
0[
1^
1f
1g
1o
0p
0t
b000000100 #!
b00000000000000000000000000000100 %!
0'!
#35
0#
0'
0O
0g
#36
1#
1'
1O
1g
#37
0#
0'
0O
0g
#38
1#
1$
b00000000000000000000000000000010 %
1'
1(
b00000000000000000000000000000010 *
1,
11
b00000000000000000000000000000010 3
15
b000000000000000000000000000000101111 7
b00000000000000000000000000000010 =
1G
1I
1K
b00000000000000000000000000000010 L
1O
b00000000000000000000000000000010 Q
1T
b00000000000000000000000000000010 Y
1[
b00000000000000000000000000000010 ]
1b
b00000000000000000000000000000010 c
1g
b00000000000000000000000000000010000000001 h
1j
b00000000000000000000000000000010000000001 l
1n
1p
b000000000000000000000000000000101111 r
1t
b000000010 #!
#39
0#
0'
0O
0g
#40
1#
b00000000000000000000000000000100 %
1'
b00000000000000000000000000000100 *
b00000000000000000000000000000010 .
b00000000000000000000000000000100 3
b000000000000000000000000000001001111 7
b00000000000000000000000000000010 9
b00000000000000000000000000000100 =
b00000000000000000000000000000010 ?
b00000000000000000000000000000100 L
1O
b00000000000000000000000000000100 Q
b00000000000000000000000000000010 V
b00000000000000000000000000000100 Y
b00000000000000000000000000000100 ]
b00000000000000000000000000000010 _
b00000000000000000000000000000100 c
1g
b00000000000000000000000000000100000000001 h
b00000000000000000000000000000100000000001 l
b000000000000000000000000000001001111 r
b00000000000000000000000000000010 w
b000000100 #!
b00000000000000000000000000000010 $!
b00000000000000000000000000000011 %!
#41
0#
0'
0O
0g
#42
1#
b00000000000000000000000000000110 %
1'
b00000000000000000000000000000110 *
b00000000000000000000000000000000 .
b00000000000000000000000000000110 3
b000000000000000000000000000001101111 7
b00000000000000000000000000000000 9
b00000000000000000000000000000110 =
b00000000000000000000000000000000 ?
b00000000000000000000000000000110 L
1O
b00000000000000000000000000000110 Q
b00000000000000000000000000000000 V
b00000000000000000000000000000110 Y
b00000000000000000000000000000110 ]
b00000000000000000000000000000000 _
b00000000000000000000000000000110 c
1g
b00000000000000000000000000000110000000001 h
b00000000000000000000000000000110000000001 l
b000000000000000000000000000001101111 r
b00000000000000000000000000000000 w
b000000110 #!
b00000000000000000000000000000000 $!
b00000000000000000000000000000101 %!
#43
0#
0'
0O
0g
#44
1#
b00000000000000000000000000001000 %
1'
b00000000000000000000000000001000 *
b00000000000000000000000000001000 3
b000000000000000000000000000010001111 7
b00000000000000000000000000001000 =
b00000000000000000000000000001000 L
1O
b00000000000000000000000000001000 Q
b00000000000000000000000000001000 Y
b00000000000000000000000000001000 ]
b00000000000000000000000000001000 c
1g
b00000000000000000000000000001000000000001 h
b00000000000000000000000000001000000000001 l
b000000000000000000000000000010001111 r
b000001000 #!
b00000000000000000000000000000111 %!
#45
0#
0'
0O
0g
#46
1#
0$
1'
0(
0,
01
05
0G
0I
0K
1O
0T
0[
0b
1g
0j
0n
0p
0t
b000001001 #!
b00000000000000000000000000001001 %!
#47
0#
0'
0O
0g
#48
1#
1'
1O
1g
#49
0#
0'
0O
0g
#50
1#
1'
1(
11
1I
b00000000000000000000000000000010 L
1O
b00000000000000000000000000000010 Q
1T
b00000000000000000000000000000010 ]
1b
b00000000000000000000000000000010 c
1g
b00000000000000000000000000000010000000001 h
1j
b00000000000000000000000000000010000000001 l
1n
b000000010 #!
#51
0#
0'
0O
0g
#52
1#
1$
b00000000000000000000000000000010 %
1'
b00000000000000000000000000000010 *
1,
b00000000000000000000000000000010 .
b00000000000000000000000000000010 3
15
b000000000000000000000000000000101111 7
b00000000000000000000000000000010 9
b00000000000000000000000000000010 =
b00000000000000000000000000000010 ?
1A
b00000000 B
0C
1G
0I
1K
b00000000000000000000000000000100 L
1O
b00000000000000000000000000000100 Q
b00000000000000000000000000000010 V
b00000000000000000000000000000010 Y
1[
b00000000000000000000000000000100 ]
0^
b00000000000000000000000000000010 _
b00000000000000000000000000000100 c
0f
1g
b00000000000000000000000000000100000000001 h
b00000000000000000000000000000100000000001 l
0o
1p
b000000000000000000000000000000101111 r
1t
b00000000000000000000000000000010 w
b00000000000000000000000000000010 $!
b00000000000000000000000000000010 %!
1'!
#53
0#
0'
0O
0g
#54
1#
b00000000000000000000000000000100 %
1'
b00000000000000000000000000000100 *
b00000000000000000000000000000100 3
b000000000000000000000000000001001111 7
b00000000000000000000000000000100 =
0A
b11111111 B
1C
1I
b00000000000000000000000000000110 L
1O
b00000000000000000000000000000110 Q
b00000000000000000000000000000100 Y
1^
1f
1g
b00000000000000000000000000000110000000001 h
1o
b000000000000000000000000000001001111 r
b00000000000000000000000000000100000000001 y
0{
b000000100 #!
b00000000000000000000000000000011 %!
0'!
#55
0#
0'
0O
0g
#56
1#
b00000000000000000000000000000110 %
1'
b00000000000000000000000000000110 *
b00000000000000000000000000000100 .
b00000000000000000000000000000110 3
b000000000000000000000000000001101111 7
b00000000000000000000000000000100 9
b00000000000000000000000000000110 =
b00000000000000000000000000000100 ?
b00000000000000000000000000001000 L
1O
b00000000000000000000000000001000 Q
b00000000000000000000000000000100 V
b00000000000000000000000000000110 Y
b00000000000000000000000000000110 ]
b00000000000000000000000000000100 _
b00000000000000000000000000000110 c
1g
b00000000000000000000000000001000000000001 h
b00000000000000000000000000000110000000001 l
b000000000000000000000000000001101111 r
b00000000000000000000000000000100 w
b00000000000000000000000000000110000000001 y
b000000110 #!
b00000000000000000000000000000100 $!
b00000000000000000000000000000101 %!
#57
0#
0'
0O
0g
#58
1#
b00000000000000000000000000001000 %
1'
b00000000000000000000000000001000 *
b00000000000000000000000000000110 .
b00000000000000000000000000001000 3
b000000000000000000000000000010001111 7
b00000000000000000000000000000110 9
b00000000000000000000000000001000 =
b00000000000000000000000000000110 ?
1O
0T
b00000000000000000000000000000110 V
b00000000000000000000000000001000 Y
b00000000000000000000000000001000 ]
b00000000000000000000000000000110 _
0b
b00000000000000000000000000001000 c
1g
0j
b00000000000000000000000000001000000000001 l
b000000000000000000000000000010001111 r
b00000000000000000000000000000110 w
b00000000000000000000000000001000000000001 y
b000001000 #!
b00000000000000000000000000000110 $!
b00000000000000000000000000000111 %!
#59
0#
0'
0O
0g
#60
1#
0$
1'
0(
0,
b00000000000000000000000000001000 .
01
05
b00000000000000000000000000001000 9
b00000000000000000000000000001000 ?
0G
0I
0K
1O
b00000000000000000000000000001000 V
0[
b00000000000000000000000000001000 _
1g
0n
0p
0t
b00000000000000000000000000001000 w
1{
b000001001 #!
b00000000000000000000000000001000 $!
b00000000000000000000000000001001 %!
#61
0#
0'
0O
0g
#62
1#
1'
b00000000000000000000000000000000 .
b00000000000000000000000000000000 9
b00000000000000000000000000000000 ?
1O
b00000000000000000000000000000000 V
b00000000000000000000000000000000 _
1g
b00000000000000000000000000000000 w
b00000000000000000000000000000000 $!
#63
0#
0'
0O
0g
#64
1#
1$
b00000000000000000000000000000100 %
1'
1(
b00000000000000000000000000000100 *
1,
11
b00000000000000000000000000000100 3
15
b000000000000000000000000000001001111 7
b00000000000000000000000000000100 =
b00000001 F
1G
1I
1K
b00000000000000000000000000000100 L
b00000001 N
1O
b00000000000000000000000000000100 Q
b00000001 S
1T
b00000000000000000000000000000100 Y
1[
b00000000000000000000000000000100 ]
1b
b00000000000000000000000000000100 c
b00000001 e
1g
b00000000000000000000000000000100000000011 h
1j
b00000000000000000000000000000100000000011 l
1n
1p
b000000000000000000000000000001001111 r
1t
b000000100 #!
#65
0#
0'
0O
0g
#66
1#
b00000000000000000000000000000101 %
1'
0(
b00000000000000000000000000000101 *
b00000000000000000000000000000100 .
01
b00000000000000000000000000000101 3
b000000000000000000000000000001011111 7
b00000000000000000000000000000100 9
b00000000000000000000000000000101 =
b00000000000000000000000000000100 ?
1A
b00000000 B
0C
0I
1O
0T
b00000000000000000000000000000100 V
b00000000000000000000000000000101 Y
0^
b00000000000000000000000000000100 _
0b
0f
1g
0j
0n
0o
b000000000000000000000000000001011111 r
b00000000000000000000000000000100 w
b000000101 #!
b00000000000000000000000000000100 $!
b00000000000000000000000000000101 %!
1'!
#67
0#
0'
0O
0g
#68
1#
0$
1'
0,
b00000000000000000000000000000000 .
05
b00000000000000000000000000000000 9
b00000000000000000000000000000000 ?
0A
b11111111 B
1C
0G
0K
1O
b00000000000000000000000000000000 V
0[
1^
b00000000000000000000000000000000 _
1f
1g
1o
0p
0t
b00000000000000000000000000000000 w
b000000110 #!
b00000000000000000000000000000000 $!
b00000000000000000000000000000110 %!
0'!
#69
0#
0'
0O
0g
#70
1#
1'
b00000000000000000000000000000110 .
b00000000000000000000000000000110 9
b00000000000000000000000000000110 ?
1O
b00000000000000000000000000000110 V
b00000000000000000000000000000110 _
1g
b00000000000000000000000000000110 w
b00000000000000000000000000000110 $!
#71
0#
0'
0O
0g
#72
1#
1'
1(
11
1I
b00000000000000000000000000001000 L
1O
b00000000000000000000000000001000 Q
1T
b00000000000000000000000000001000 ]
1b
b00000000000000000000000000001000 c
1g
b00000000000000000000000000001000000000011 h
1j
b00000000000000000000000000001000000000011 l
1n
b000001000 #!
#73
0#
0'
0O
0g
#74
1#
1$
b00000000000000000000000000001000 %
1'
0(
b00000000000000000000000000001000 *
1,
b00000000000000000000000000001000 .
01
b00000000000000000000000000001000 3
15
b000000000000000000000000000010001111 7
b00000000000000000000000000001000 9
b00000000000000000000000000001000 =
b00000000000000000000000000001000 ?
1A
b00000001 B
0C
1G
0I
1K
1O
0T
b00000000000000000000000000001000 V
b00000000000000000000000000001000 Y
1[
0^
b00000000000000000000000000001000 _
0b
0f
1g
0j
0n
0o
1p
b000000000000000000000000000010001111 r
1t
b00000000000000000000000000001000 w
b00000000000000000000000000001000 $!
b00000000000000000000000000001000 %!
#75
0#
0'
0O
0g
#76
1#
b00000000000000000000000000001001 %
1'
b00000000000000000000000000001001 *
b00000000000000000000000000001001 3
b000000000000000000000000000010011111 7
b00000000000000000000000000001001 =
b00000000 B
1O
b00000000000000000000000000001001 Y
1g
b000000000000000000000000000010011111 r
b000001001 #!
b00000000000000000000000000001001 %!
1'!
#77
0#
0'
0O
0g
#78
1#
0$
1'
0,
b00000000000000000000000000000000 .
05
b00000000000000000000000000000000 9
b00000000000000000000000000000000 ?
0A
b11111111 B
1C
0G
0K
1O
b00000000000000000000000000000000 V
0[
1^
b00000000000000000000000000000000 _
1f
1g
1o
0p
0t
b00000000000000000000000000000000 w
b000001010 #!
b00000000000000000000000000000000 $!
b00000000000000000000000000001010 %!
0'!
#79
0#
0'
0O
0g
#80
1#
1'
1O
1g
#81
0#
0'
0O
0g
#82
1#
1'
1(
11
1I
b00000000000000000000000000001100 L
1O
b00000000000000000000000000001100 Q
1T
b00000000000000000000000000001100 ]
1b
b00000000000000000000000000001100 c
1g
b00000000000000000000000000001100000000011 h
1j
b00000000000000000000000000001100000000011 l
1n
b000001100 #!
#83
0#
0'
0O
0g
#84
1#
1'
0(
01
1A
b00000001 B
0C
0I
1O
0T
0^
0b
0f
1g
0j
0n
0o
b00000000000000000000000000001100 %!
#85
0#
0'
0O
0g
#86
1#
1'
1O
1g
#87
0#
0'
0O
0g
#88
1#
1$
b00000000000000000000000000001100 %
1'
b00000000000000000000000000001100 *
1,
b00000000000000000000000000001100 3
15
b000000000000000000000000000011001111 7
b00000000000000000000000000001100 =
1G
1K
1O
b00000000000000000000000000001100 Y
1[
1g
1p
b000000000000000000000000000011001111 r
1t
#89
0#
0'
0O
0g
#90
1#
b00000000000000000000000000001101 %
1'
b00000000000000000000000000001101 *
b00000000000000000000000000001101 3
b000000000000000000000000000011011111 7
b00000000000000000000000000001101 =
b00000000 B
1O
b00000000000000000000000000001101 Y
1g
b000000000000000000000000000011011111 r
b000001101 #!
b00000000000000000000000000001101 %!
1'!
#91
0#
0'
0O
0g
#92
1#
0$
1'
0,
05
0A
b11111111 B
1C
0G
0K
1O
0[
1^
1f
1g
1o
0p
0t
b000001110 #!
b00000000000000000000000000001110 %!
0'!
#93
0#
0'
0O
0g
#94
1#
1'
1O
1g
#95
0#
0'
0O
0g
#96
1#
1$
b00000000000000000000000000010000 %
1'
1(
b00000000000000000000000000010000 *
1,
11
b00000000000000000000000000010000 3
15
b000000000000000000000000000100001111 7
b00000000000000000000000000010000 =
1G
1I
1K
b00000000000000000000000000010000 L
1O
b00000000000000000000000000010000 Q
1T
b00000000000000000000000000010000 Y
1[
b00000000000000000000000000010000 ]
1b
b00000000000000000000000000010000 c
1g
b00000000000000000000000000010000000000011 h
1j
b00000000000000000000000000010000000000011 l
1n
1p
b000000000000000000000000000100001111 r
1t
b000010000 #!
#97
0#
0'
0O
0g
#98
1#
b00000000000000000000000000010001 %
1'
b00000000000000000000000000010001 *
b00000000000000000000000000010001 3
b000000000000000000000000000100011111 7
b00000000000000000000000000010001 =
1A
b00000000 B
0C
0I
b00000000000000000000000000010100 L
1O
b00000000000000000000000000010100 Q
b00000000000000000000000000010001 Y
b00000000000000000000000000010100 ]
0^
b00000000000000000000000000010100 c
0f
1g
b00000000000000000000000000010100000000011 h
b00000000000000000000000000010100000000011 l
0o
b000000000000000000000000000100011111 r
b000010001 #!
b00000000000000000000000000010001 %!
1'!
#99
0#
0'
0O
0g
#100
1#
b00000000000000000000000000010100 %
1'
b00000000000000000000000000010100 *
b00000000000000000000000000010100 3
b000000000000000000000000000101001111 7
b00000000000000000000000000010100 =
0A
b11111111 B
1C
1I
b00000000000000000000000000011000 L
1O
b00000000000000000000000000011000 Q
b00000000000000000000000000010100 Y
1^
1f
1g
b00000000000000000000000000011000000000011 h
1o
b000000000000000000000000000101001111 r
b00000000000000000000000000010100000000011 y
0{
b000010100 #!
b00000000000000000000000000010010 %!
0'!
#101
0#
0'
0O
0g
#102
1#
b00000000000000000000000000010101 %
1'
b00000000000000000000000000010101 *
0-
b00000000000000000000000000010101 3
b000000000000000000000000000101011111 7
b00000000000000000000000000010101 =
1A
b00000000 B
0C
0I
b00000000000000000000000000011100 L
1O
b00000000000000000000000000011100 Q
0U
b00000000000000000000000000010101 Y
b00000000000000000000000000011000 ]
0^
b00000000000000000000000000011000 c
0f
1g
b00000000000000000000000000011100000000011 h
0k
b00000000000000000000000000011000000000011 l
0o
b000000000000000000000000000101011111 r
b00000000000000000000000000011000000000011 y
b000010101 #!
b00000000000000000000000000010101 %!
1'!
#103
0#
0'
0O
0g
#104
1#
b00000000000000000000000000011000 %
1'
b00000000000000000000000000011000 *
1-
b00000000000000000000000000011000 3
b000000000000000000000000000110001111 7
b00000000000000000000000000011000 =
0A
b11111111 B
1C
1I
1O
1U
b00000000000000000000000000011000 Y
1^
1f
1g
1k
1o
b000000000000000000000000000110001111 r
b000011000 #!
b00000000000000000000000000010110 %!
0'!
#105
0#
0'
0O
0g
#106
1#
b00000000000000000000000000011001 %
1'
b00000000000000000000000000011001 *
0-
b00000000000000000000000000011001 3
b000000000000000000000000000110011111 7
b00000000000000000000000000011001 =
1A
b00000000 B
0C
0I
1O
0T
0U
b00000000000000000000000000011001 Y
b00000000000000000000000000011100 ]
0^
0b
b00000000000000000000000000011100 c
0f
1g
0j
0k
b00000000000000000000000000011100000000011 l
0o
b000000000000000000000000000110011111 r
b00000000000000000000000000011100000000011 y
b000011001 #!
b00000000000000000000000000011001 %!
1'!
#107
0#
0'
0O
0g
#108
1#
b00000000000000000000000000011100 %
1'
b00000000000000000000000000011100 *
1-
b00000000000000000000000000011100 3
b000000000000000000000000000111001111 7
b00000000000000000000000000011100 =
0A
b11111111 B
1C
1I
1O
1U
b00000000000000000000000000011100 Y
1^
1f
1g
1k
1o
b000000000000000000000000000111001111 r
b000011100 #!
b00000000000000000000000000011010 %!
0'!
#109
0#
0'
0O
0g
